<svg xmlns="http://www.w3.org/2000/svg" width="650" height="1052" font-size="20" preserveAspectRatio="xMaxYMax meet"
    text-anchor="middle" style="border:1px solid #efefef;background-color:#fff">
    <title>Page i – One Trillion Digits of Pi</title>
    <style>
        text {
            letter-spacing: .04em;
            font-family: 'Crimson Pro'
        }
    </style><text x="50%" y="400" style="text-transform:uppercase" font-size="1.4em" font-weight="400">ONE TRILLION
        DIGITS OF PI</text><text x="50%" y="430" style="font-feature-settings:&quot;onum&quot;" font-style="italic"
        font-variant="oldstyle-nums">Volume <tspan fill="#8b0000">1</tspan> of 1,000,000</text>
    <line x1="20%" x2="80%" y1="900" y2="900" stroke="#000" stroke-width=".8" /><text x="50%" y="950"
        font-variant="small-caps">Lennart Grebelius</text>
</svg>