<svg width="650" height="1052" viewBox="0 0 650 1052" preserveAspectRatio="xMaxYMax meet"
    xmlns="http://www.w3.org/2000/svg">
    <style>
        svg {
            border: 1px solid #efefef;
            background-color: white;
            font: italic 18px 'Bembo', 'Crimson Pro', serif;
            font-variant-numeric: oldstyle-nums;
        }

        .author {
            letter-spacing: .04em;
            font-variant: small-caps;
            font-style: normal;
        }
    </style>

    <text x="135" y="330">
        <tspan textLength="390" lengthAdjust="spacing" dx="-10px">“The mathematician’s patterns, like the
            painter’s or the</tspan>
        <tspan textLength="380" lengthAdjust="spacing" x="135" dy="1.451em">poet’s, must be beautiful; the ideas, like
            the colours or the</tspan>
        <tspan textLength="380" lengthAdjust="spacing" x="135" dy="1.451em">words, must fit together in a harmonious
            way. Beauty is</tspan>
        <tspan textLength="380" lengthAdjust="spacing" x="135" dy="1.451em">the first test: there is no permanent place
            in this world for</tspan>
        <tspan x="135" dy="1.451em">ugly mathematics.”</tspan>
        <tspan class="author" style="text-anchor: middle" x="50%" dy="2.5em">G. H. Hardy
            (1877-1947)
        </tspan>
    </text>
</svg>